…
\# Methods

\###### My data was acquired from the USDA Economic Research Service
Website
(<https://www.ers.usda.gov/data-products/food-access-research-atlas/download-the-data/#Current%20Version>).

\## Read in data

``` r
data <- read_excel('2019FoodDataLAC.xlsx')
data
```

    ## # A tibble: 2,334 × 83
    ##    CensusTr…¹ State County Urban Pop2010 OHU2010 Group…² NUMGQ…³ PCTGQ…⁴ LILAT…⁵
    ##    <chr>      <chr> <chr>  <dbl>   <dbl>   <dbl>   <dbl> <chr>   <chr>     <dbl>
    ##  1 060371011… Cali… Los A…     1    4731    1641       0 88      1.8600…       0
    ##  2 060371011… Cali… Los A…     1    3664    1325       0 0       0             0
    ##  3 060371012… Cali… Los A…     1    5990    2150       0 55      0.9181…       0
    ##  4 060371012… Cali… Los A…     1    3363    1246       0 2       5.9470…       0
    ##  5 060371013… Cali… Los A…     1    4199    1542       0 49      1.1669…       0
    ##  6 060371014… Cali… Los A…     1    3903    1498       0 2       5.1242…       0
    ##  7 060371021… Cali… Los A…     1    1740     630       0 0       0             0
    ##  8 060371021… Cali… Los A…     1    3648    1279       0 212     5.8114…       0
    ##  9 060371021… Cali… Los A…     1    1731     527       0 0       0             1
    ## 10 060371021… Cali… Los A…     1    3851    1269       0 294     7.6343…       0
    ## # … with 2,324 more rows, 73 more variables: LILATracts_halfAnd10 <dbl>,
    ## #   LILATracts_1And20 <dbl>, LILATracts_Vehicle <dbl>, HUNVFlag <dbl>,
    ## #   LowIncomeTracts <dbl>, PovertyRate <dbl>, MedianFamilyIncome <chr>,
    ## #   LA1and10 <dbl>, LAhalfand10 <dbl>, LA1and20 <dbl>, LATracts_half <dbl>,
    ## #   LATracts1 <dbl>, LATracts10 <dbl>, LATracts20 <dbl>,
    ## #   LATractsVehicle_20 <dbl>, LAPOP1_10 <chr>, LAPOP05_10 <chr>,
    ## #   LAPOP1_20 <chr>, LALOWI1_10 <chr>, LALOWI05_10 <chr>, LALOWI1_20 <chr>, …
…
